[backblue.gif]
[fade.gif]
[index.html]
[cschengdu.ca/indexd784.html]
[cschengdu.ca/indexa6da.html]
[cschengdu.ca/wp-includes/js/jquery/jqueryb8ff.js]
[cschengdu.ca/wp-includes/js/jquery/jquery-migrate.min330a.js]
[cschengdu.ca/wp-content/plugins/back-to-top-scroller/js/backtotopscroller8c23.js]
[cschengdu.ca/index52f0.html]
[cschengdu.ca/wp-includes/wlwmanifest.xml]
[cschengdu.ca/wp-content/uploads/2014/02/cropped-circle-thumbnail-11.jpg]
[cschengdu.ca/wp-content/uploads/2013/12/logo-2.png]
[cschengdu.ca/wp-includes/js/imagesloaded.min55a0.js]
[cschengdu.ca/wp-includes/js/masonry.mind617.js]
[cschengdu.ca/wp-includes/js/jquery/jquery.masonry.minef70.js]
[cschengdu.ca/wp-content/themes/twentythirteen/js/functionsf84f.js]
[cschengdu.ca/wp-includes/js/wp-embed.min8c23.js]
[cschengdu.ca/index.html]
[cschengdu.ca/xmlrpc.html]
[cschengdu.ca/wp-content/plugins/back-to-top-scroller/img/icon_top.png]
[cschengdu.ca/wp-content/plugins/back-to-top-scroller/css/backtotopscroller8c23.css]
[cschengdu.ca/wp-content/themes/twentythirteen/genericons/font/genericons-regular-webfont.eot]
[cschengdu.ca/wp-content/themes/twentythirteen/genericons/font/genericons-regular-webfont.ttf]
[cschengdu.ca/wp-content/themes/twentythirteen/genericons/genericons6bb7.css]
[cschengdu.ca/wp-content/themes/twentythirteen/images/dotted-line.png]
[cschengdu.ca/wp-content/themes/twentythirteen/images/search-icon.png]
[cschengdu.ca/wp-content/themes/twentythirteen/images/search-icon-2x.png]
[cschengdu.ca/wp-content/themes/twentythirteen/images/dotted-line-2x.png]
[cschengdu.ca/wp-content/themes/twentythirteen/style4a02.css]
[cschengdu.ca/xmlrpc0db0.html]
[cschengdu.ca/index914b.html]
[cschengdu.ca/indexc5ac.html]
[cschengdu.ca/wp-includes/js/comment-reply.min8c23.js]
[cschengdu.ca/index0119.html]
[cschengdu.ca/index0d2a.html]
[cschengdu.ca/wp-content/uploads/2014/02/advertising-1.jpg]
[cschengdu.ca/index2a9c.html]
[cschengdu.ca/wp-content/uploads/2014/04/CS-School-Picture-604x270.jpg]
[cschengdu.ca/wp-content/uploads/2014/04/C.S-from-Gatehouse.jpg]
[cschengdu.ca/wp-content/uploads/2014/04/C.S-from-Gatehouse-300x205.jpg]
[cschengdu.ca/wp-content/uploads/2014/04/CS-School-Picture.jpg]
[cschengdu.ca/wp-content/uploads/2014/04/CS-School-Picture-300x193.jpg]
[cschengdu.ca/index71ec.html]
[cschengdu.ca/wp-content/uploads/2014/04/LCW-2101.jpg]
[cschengdu.ca/wp-content/uploads/2014/04/LCW-2101-167x300.jpg]
[cschengdu.ca/wp-content/uploads/2014/04/Clock-Tower-Harmony-Hall-and-W.C.U.U.-campus.jpg]
[cschengdu.ca/wp-content/uploads/2014/04/Clock-Tower-Harmony-Hall-and-W.C.U.U.-campus-300x195.jpg]
[cschengdu.ca/wp-content/uploads/2014/04/LCW-178.jpg]
[cschengdu.ca/wp-content/uploads/2014/04/LCW-178-300x183.jpg]
[cschengdu.ca/wp-content/uploads/2014/04/LCW-207.jpg]
[cschengdu.ca/wp-content/uploads/2014/04/LCW-207-300x203.jpg]
[cschengdu.ca/wp-content/uploads/2014/04/LCW-355.jpg]
[cschengdu.ca/wp-content/uploads/2014/04/LCW-355-300x194.jpg]
[cschengdu.ca/wp-content/uploads/2014/04/LCW-171.jpg]
[cschengdu.ca/wp-content/uploads/2014/04/LCW-171-300x149.jpg]
[cschengdu.ca/wp-content/uploads/2014/04/LCW-118.jpg]
[cschengdu.ca/wp-content/uploads/2014/04/LCW-118-300x160.jpg]
[cschengdu.ca/wp-content/uploads/2014/04/LCW-120.jpg]
[cschengdu.ca/wp-content/uploads/2014/04/LCW-120-300x166.jpg]
[cschengdu.ca/wp-content/uploads/2014/04/LCW-101.jpg]
[cschengdu.ca/wp-content/uploads/2014/04/LCW-101-300x164.jpg]
[cschengdu.ca/wp-content/uploads/2014/04/LCW-181.jpg]
[cschengdu.ca/wp-content/uploads/2014/04/LCW-181-300x160.jpg]
[cschengdu.ca/indexed66.html]
[cschengdu.ca/wp-content/uploads/2014/11/campus-1.jpg]
[cschengdu.ca/wp-content/uploads/2014/11/staff-photo.jpg]
[cschengdu.ca/indexa902.html]
[cschengdu.ca/indexa5cd.html]
[cschengdu.ca/index21cb.html]
[cschengdu.ca/index2611.html]
[cschengdu.ca/wp-content/uploads/2014/03/CS-Fall-2018.pdf]
[cschengdu.ca/wp-content/uploads/2014/03/CS-Spring-2018.pdf]
[cschengdu.ca/wp-content/uploads/2014/03/CS-Fall-2017.pdf]
[cschengdu.ca/wp-content/uploads/2014/03/CS-Spring-2017.pdf]
[cschengdu.ca/wp-content/uploads/2014/03/CS-Fall-2016.pdf]
[cschengdu.ca/wp-content/uploads/2014/03/CS-Spring-2016.pdf]
[cschengdu.ca/wp-content/uploads/2014/03/CS-Template-Fall-2015-PDF.pdf]
[cschengdu.ca/wp-content/uploads/2014/03/No.-32-FALL-2013—-SPRING-2014.pdf]
[cschengdu.ca/wp-content/uploads/2014/03/No.-31-SPRING-2013.pdf]
[cschengdu.ca/wp-content/uploads/2014/03/No.-30-FALL-2012.pdf]
[cschengdu.ca/wp-content/uploads/2014/03/No.-29-SPRING-2012.pdf]
[cschengdu.ca/indexfd26.html]
[cschengdu.ca/wp-content/uploads/2014/04/Killy.jpg]
[cschengdu.ca/wp-content/uploads/2014/04/Dories-Elizabeth-RUNDLE.jpg]
[cschengdu.ca/wp-content/uploads/2014/04/Nolan-Ona-Noreen-nee-Anderson.jpg]
[cschengdu.ca/wp-content/uploads/2014/04/Vivian-Anderson-Wlson.jpg]
[cschengdu.ca/wp-content/uploads/2014/04/Marry-Jolliffe.jpg]
[cschengdu.ca/wp-content/uploads/2014/04/aebf287c-988c-48b1-9640-e933c0785dfc.jpg]
[cschengdu.ca/wp-content/uploads/2014/04/BMGX.jpg]
[cschengdu.ca/wp-content/uploads/2014/04/BMGX-243x300.jpg]
[cschengdu.ca/wp-content/uploads/2014/04/Bill-Arnup.jpg]
[cschengdu.ca/index831b.html]
[cschengdu.ca/index08a4.html]
[cschengdu.ca/indexcff1.html]
[cschengdu.ca/index8dd8.html]
[cschengdu.ca/indexb31a.html]
[cschengdu.ca/indexb53c.html]
[cschengdu.ca/indexcd64.html]
[cschengdu.ca/indexabfd.html]
[cschengdu.ca/indexd44c.html]
[cschengdu.ca/wp-content/plugins/captcha-on-login/get_image.jpg]
[cschengdu.ca/indexa452.html]
[cschengdu.ca/wp-login.html]
[cschengdu.ca/indexf90d.html]
[cschengdu.ca/index8760.html]
[cschengdu.ca/wp-content/themes/twentythirteen/genericons/font/genericons-regular-webfont.svg]
[cschengdu.ca/index341b.html]
[cschengdu.ca/wp-content/uploads/2013/12/Song-3.jpg]
[cschengdu.ca/wp-content/uploads/2013/12/CS-song230a.mp3]
[cschengdu.ca/wp-content/uploads/2013/12/CS-song.mp3]
[cschengdu.ca/wp-includes/js/mediaelement/mediaelement-and-player.min51cd.js]
[cschengdu.ca/wp-includes/js/mediaelement/wp-mediaelement.min8c23.js]
[cschengdu.ca/indexba53.html]
[cschengdu.ca/indexc0c9.html]
[cschengdu.ca/index1f86.html]
[cschengdu.ca/index6f87.html]
[cschengdu.ca/indexcfe5.html]
[cschengdu.ca/index3153.html]
[cschengdu.ca/indexb5fb.html]
[cschengdu.ca/index6490.html]
[cschengdu.ca/indexd3ae.html]
[cschengdu.ca/index36a4.html]
[cschengdu.ca/index66c9.html]
[cschengdu.ca/index86fa.html]
[cschengdu.ca/index30db.html]
[cschengdu.ca/indexc2d7.html]
[cschengdu.ca/index4264.html]
[cschengdu.ca/index7662.html]
[cschengdu.ca/index5c30.html]
[cschengdu.ca/indexe982.html]
[cschengdu.ca/wp-content/uploads/2014/11/Gwyneth.jpg]
[cschengdu.ca/indexd1c5.html]
[cschengdu.ca/wp-content/uploads/2014/11/Phyllis.jpg]
[cschengdu.ca/index723e.html]
[cschengdu.ca/index8754.html]
[cschengdu.ca/wp-content/uploads/2014/11/Dorothy.jpg]
[cschengdu.ca/indexaae2.html]
[cschengdu.ca/wp-content/uploads/2014/11/Helen.jpg]
[cschengdu.ca/indexa96a.html]
[cschengdu.ca/wp-content/uploads/2014/11/the-Days.jpg]
[cschengdu.ca/index5565.html]
[cschengdu.ca/wp-content/uploads/2014/11/David-Day.jpg]
[cschengdu.ca/indexcd9b.html]
[cschengdu.ca/wp-content/uploads/2014/11/Diana.jpg]
[cschengdu.ca/indexba86.html]
[cschengdu.ca/index0f56.html]
[cschengdu.ca/wp-content/uploads/2014/11/Jean-Hayward.jpg]
[cschengdu.ca/index9878.html]
[cschengdu.ca/index4087.html]
[cschengdu.ca/index32a3.html]
[cschengdu.ca/index932d.html]
[cschengdu.ca/index4a97.html]
[cschengdu.ca/wp-content/uploads/2014/11/Joanne-Hayward.jpg]
[cschengdu.ca/index2d19.html]
[cschengdu.ca/index4875.html]
[cschengdu.ca/wp-content/uploads/2014/11/Mary-Jolliffe.jpg]
[cschengdu.ca/indexa96d.html]
[cschengdu.ca/index982c.html]
[cschengdu.ca/indexa784.html]
[cschengdu.ca/wp-content/uploads/2014/11/Judith-1.jpg]
[cschengdu.ca/wp-content/uploads/2014/11/Judith-2.jpg]
[cschengdu.ca/wp-content/uploads/2014/11/Judith.jpg]
[cschengdu.ca/wp-content/uploads/2014/11/Judith-and.jpg]
[cschengdu.ca/indexcfd7.html]
[cschengdu.ca/index988a.html]
[cschengdu.ca/wp-content/uploads/2014/11/Don-and-Joyce.jpg]
[cschengdu.ca/indexe6db.html]
[cschengdu.ca/wp-content/uploads/2014/11/Parker.jpg]
[cschengdu.ca/indexa16c.html]
[cschengdu.ca/indexa56c.html]
[cschengdu.ca/indexe1bc.html]
[cschengdu.ca/index72b5.html]
[cschengdu.ca/wp-content/uploads/2014/11/the-Robbs.jpg]
[cschengdu.ca/index0687.html]
[cschengdu.ca/index92b1.html]
[cschengdu.ca/indexddcd.html]
[cschengdu.ca/indexef9d.html]
[cschengdu.ca/indexa36c.html]
[cschengdu.ca/wp-content/uploads/2014/11/Margaret-Smith.jpg]
[cschengdu.ca/index06ff.html]
[cschengdu.ca/indexe539.html]
[cschengdu.ca/index5193.html]
[cschengdu.ca/index68cd.html]
[cschengdu.ca/wp-content/uploads/2014/11/Dora-group.jpg]
[cschengdu.ca/indexb32f.html]
[cschengdu.ca/index8a56.html]
[cschengdu.ca/index9b9d.html]
[cschengdu.ca/indexb2ba.html]
[cschengdu.ca/wp-content/uploads/2014/11/Marice-Stinson.jpg]
[cschengdu.ca/index64d2.html]
[cschengdu.ca/indexa0b6.html]
[cschengdu.ca/indexd0bd.html]
[cschengdu.ca/wp-content/uploads/2014/11/Sam-and-Bill.jpg]
[cschengdu.ca/indexba27.html]
[cschengdu.ca/wp-content/uploads/2014/11/the-Webster.jpg]
[cschengdu.ca/index96d9.html]
[cschengdu.ca/index708b.html]
[cschengdu.ca/wp-content/uploads/2014/11/Diana-and-Bill.jpg]
[cschengdu.ca/indexc9b6.html]
[cschengdu.ca/index7e31.html]
[cschengdu.ca/index419a.html]
[cschengdu.ca/index78a0.html]
[cschengdu.ca/wp-content/uploads/2014/11/group-1948.jpg]
[cschengdu.ca/wp-content/uploads/2014/11/group-1949.jpg]
[cschengdu.ca/indexedc2.html]
[cschengdu.ca/index6b93.html]
[cschengdu.ca/indexf9af.html]
[cschengdu.ca/wp-content/uploads/2014/10/20141018_125617-300x225.jpg]
[cschengdu.ca/wp-content/uploads/2014/10/20141018_131030-300x225.jpg]
[cschengdu.ca/wp-content/uploads/2014/10/20141018_133717-300x225.jpg]
[cschengdu.ca/wp-content/uploads/2014/10/20141018_140347-300x225.jpg]
[cschengdu.ca/index9920.html]
[cschengdu.ca/indexf39b.html]
[cschengdu.ca/wp-content/uploads/2015/11/pic11.jpg]
[cschengdu.ca/wp-content/uploads/2015/11/Phyllis1.jpg]
[cschengdu.ca/wp-content/uploads/2015/11/Cathy1.jpg]
[cschengdu.ca/index132c.html]
[cschengdu.ca/wp-content/uploads/2015/11/Sandra1.jpg]
[cschengdu.ca/wp-content/uploads/2015/11/George1.jpg]
[cschengdu.ca/wp-content/uploads/2015/11/Carla1.jpg]
[cschengdu.ca/index5f22.html]
[cschengdu.ca/index65d2.html]
[cschengdu.ca/index58e0.html]
[cschengdu.ca/index7960.html]
[cschengdu.ca/index105a.html]
[cschengdu.ca/indexdb4e.html]
[cschengdu.ca/index86f4.html]
[cschengdu.ca/index1130.html]
[cschengdu.ca/index1ed6.html]
[cschengdu.ca/indexbecb.html]
[cschengdu.ca/indexcc9d.html]
[cschengdu.ca/index76cc.html]
[cschengdu.ca/index24af.html]
[cschengdu.ca/index8f3d.html]
[cschengdu.ca/index324c.html]
[cschengdu.ca/indexb1ce.html]
[cschengdu.ca/indexca21.html]
[cschengdu.ca/index37ab.html]
[cschengdu.ca/index2f03.html]
[cschengdu.ca/index6353.html]
[cschengdu.ca/index08cf.html]
[cschengdu.ca/index7d2b.html]
[cschengdu.ca/index827d.html]
[cschengdu.ca/indexcea1.html]
[cschengdu.ca/index0c9c.html]
[cschengdu.ca/index1c82.html]
[cschengdu.ca/indexd4e2.html]
[cschengdu.ca/index01f4.html]
[cschengdu.ca/indexdf66.html]
[cschengdu.ca/index5a9d.html]
[cschengdu.ca/indexf0f7.html]
[cschengdu.ca/index582d.html]
[cschengdu.ca/index5eb5.html]
[cschengdu.ca/index230f.html]
[cschengdu.ca/indexe2f2.html]
[cschengdu.ca/index12d5.html]
[cschengdu.ca/index9cbf.html]
[cschengdu.ca/indexdff7.html]
[cschengdu.ca/index5060.html]
[cschengdu.ca/indexcd56.html]
[cschengdu.ca/indexc926.html]
[cschengdu.ca/indexb6e2.html]
[cschengdu.ca/index5aa7.html]
[cschengdu.ca/indexe71f.html]
[cschengdu.ca/index7728.html]
[cschengdu.ca/indexeaae.html]
[cschengdu.ca/index532c.html]
[cschengdu.ca/wp-includes/fonts/dashicons.eot]
[cschengdu.ca/wp-admin/images/loading.gif]
[cschengdu.ca/wp-admin/images/w-logo-blue7a53.png]
[cschengdu.ca/wp-admin/load-styles68e0.css]
[cschengdu.ca/indexff22.html]
[cschengdu.ca/index6bca.html]
[cschengdu.ca/indexb61a.html]
[cschengdu.ca/wp-admin/index.html]
[cschengdu.ca/index2a2d.html]
[cschengdu.ca/index08be.html]
[cschengdu.ca/index07c7.html]
[cschengdu.ca/wp-loginc2b6.html]
[cschengdu.ca/index0adf.html]
[cschengdu.ca/index905b.html]
[cschengdu.ca/indexe177.html]
[cschengdu.ca/index7403.html]
[cschengdu.ca/index7021.html]
[cschengdu.ca/wp-includes/js/mediaelement/bigplay.png]
[cschengdu.ca/wp-includes/js/mediaelement/background.png]
[cschengdu.ca/index95c1.html]
[cschengdu.ca/index0721.html]
[cschengdu.ca/wp-includes/js/mediaelement/loading.gif]
[cschengdu.ca/indexc9c9.html]
[cschengdu.ca/indexc983.html]
[cschengdu.ca/indexbd48.html]
[cschengdu.ca/indexe56d.html]
[cschengdu.ca/index237f.html]
[cschengdu.ca/wp-includes/js/mediaelement/controls.png]
[cschengdu.ca/index9ccf.html]
[cschengdu.ca/indexb889.html]
[cschengdu.ca/wp-includes/js/mediaelement/jumpforward.png]
[cschengdu.ca/index2022.html]
[cschengdu.ca/indexa1d8.html]
[cschengdu.ca/index1485.html]
[cschengdu.ca/wp-includes/js/mediaelement/skipback.png]
[cschengdu.ca/wp-includes/js/mediaelement/mediaelementplayer.min51cd.css]
[cschengdu.ca/indexea69.html]
[cschengdu.ca/index762b.html]
[cschengdu.ca/index38a3.html]
[cschengdu.ca/wp-includes/js/mediaelement/wp-mediaelement.min8c23.css]
[cschengdu.ca/index34c9.html]
[cschengdu.ca/index21f6.html]
[cschengdu.ca/indexf0c3.html]
[cschengdu.ca/indexa260.html]
[cschengdu.ca/index7889.html]
[cschengdu.ca/index48d0.html]
[cschengdu.ca/index7255.html]
[cschengdu.ca/index2843.html]
[cschengdu.ca/indexa862.html]
[cschengdu.ca/index5968.html]
[cschengdu.ca/index6c15.html]
[cschengdu.ca/indexec49.html]
[cschengdu.ca/indexd189.html]
[cschengdu.ca/index321c.html]
[cschengdu.ca/index8f12.html]
[cschengdu.ca/indexd42b.html]
[cschengdu.ca/indexaa82.html]
[cschengdu.ca/index0b74.html]
[cschengdu.ca/index3ee1.html]
[cschengdu.ca/indexc37e.html]
[cschengdu.ca/index4127.html]
[cschengdu.ca/index3507.html]
[cschengdu.ca/index874d.html]
[cschengdu.ca/indexb25f.html]
[cschengdu.ca/index00ec.html]
[cschengdu.ca/index5ff4.html]
[cschengdu.ca/indexab78.html]
[cschengdu.ca/index3323.html]
[cschengdu.ca/indexfdd5.html]
[cschengdu.ca/indexbd90.html]
[cschengdu.ca/indexeb13.html]
[cschengdu.ca/index1488.html]
[cschengdu.ca/indexa1d3.html]
[cschengdu.ca/index044f.html]
[cschengdu.ca/indexc4f8.html]
[cschengdu.ca/indexbcc1.html]
[cschengdu.ca/indexcbca.html]
[cschengdu.ca/indexd291.html]
[cschengdu.ca/index5195.html]
[cschengdu.ca/indexa215.html]
[cschengdu.ca/index1c79.html]
[cschengdu.ca/index7269.html]
[cschengdu.ca/indexee64.html]
[cschengdu.ca/index46ad.html]
[cschengdu.ca/indexc3bd.html]
[cschengdu.ca/index03c9.html]
[cschengdu.ca/indexc1b3.html]
[cschengdu.ca/indexbc5d.html]
[cschengdu.ca/indexfe50.html]
[cschengdu.ca/indexa722.html]
[cschengdu.ca/index803f.html]
[cschengdu.ca/index785a.html]
[cschengdu.ca/index2d98.html]
[cschengdu.ca/index61a9.html]
[cschengdu.ca/indexe60a.html]
[cschengdu.ca/index0ced.html]
[cschengdu.ca/indexb92d.html]
[cschengdu.ca/index4f61.html]
[cschengdu.ca/index0f69.html]
[cschengdu.ca/index568a.html]
[cschengdu.ca/index0852.html]
[cschengdu.ca/indexbc2b.html]
[cschengdu.ca/indexdfc0.html]
[cschengdu.ca/indexa9e1.html]
[cschengdu.ca/index4df9.html]
[cschengdu.ca/index7aeb.html]
[cschengdu.ca/indexd12a.html]
[cschengdu.ca/indexce2e.html]
[cschengdu.ca/index359a.html]
[cschengdu.ca/index3665.html]
[cschengdu.ca/indexe98a.html]
[cschengdu.ca/index39cc.html]
[cschengdu.ca/indexe23e.html]
[cschengdu.ca/indexf1bb.html]
[cschengdu.ca/indexa313.html]
[cschengdu.ca/indexcba2.html]
[cschengdu.ca/index905d.html]
[cschengdu.ca/index2005.html]
[cschengdu.ca/index6623.html]
[cschengdu.ca/index34e4.html]
[cschengdu.ca/indexdce5.html]
[cschengdu.ca/index7ec6.html]
[cschengdu.ca/index3b04.html]
[cschengdu.ca/indexab13.html]
[cschengdu.ca/indexb835.html]
[cschengdu.ca/indexd939.html]
[cschengdu.ca/indexa973.html]
[cschengdu.ca/index8dd0.html]
[cschengdu.ca/index68c6.html]
[cschengdu.ca/index0f37.html]
[cschengdu.ca/index4b1f.html]
[cschengdu.ca/index0718.html]
[cschengdu.ca/indexe5ed.html]
[cschengdu.ca/index44fb.html]
[cschengdu.ca/indexb67f.html]
[cschengdu.ca/index8372.html]
[cschengdu.ca/indexb439.html]
[cschengdu.ca/index2c3d.html]
[cschengdu.ca/index5024.html]
[cschengdu.ca/index2760.html]
[cschengdu.ca/indexe90e.html]
[cschengdu.ca/index5882.html]
[cschengdu.ca/indexa123.html]
[cschengdu.ca/index052a.html]
[cschengdu.ca/indexb753.html]
[cschengdu.ca/indexe104.html]
[cschengdu.ca/index1da5.html]
[cschengdu.ca/indexc9fb.html]
[cschengdu.ca/index5896.html]
[cschengdu.ca/indexe843.html]
[cschengdu.ca/index09a9.html]
[cschengdu.ca/indexaa07.html]
[cschengdu.ca/indexd1c3.html]
[cschengdu.ca/index3dc6.html]
[cschengdu.ca/indexf06d.html]
[cschengdu.ca/wp-content/uploads/2014/10/1906-1908-update.jpg]
[cschengdu.ca/wp-content/uploads/2014/10/1909-1912.jpg]
[cschengdu.ca/wp-content/uploads/2014/10/1913.jpg]
[cschengdu.ca/wp-content/uploads/2014/10/1913-1920.jpg]
[cschengdu.ca/wp-content/uploads/2014/10/1920-1923.jpg]
[cschengdu.ca/wp-content/uploads/2014/10/1925.jpg]
[cschengdu.ca/wp-content/uploads/2014/10/1928-1946.jpg]
[cschengdu.ca/wp-content/uploads/2014/10/1949-1950-1.jpg]
[cschengdu.ca/wp-content/uploads/2014/10/Banner-1.jpg]
[cschengdu.ca/wp-content/uploads/2014/10/35-37.jpg]
[cschengdu.ca/wp-content/uploads/2014/10/38-1957-1.jpg]
[cschengdu.ca/wp-content/uploads/2014/10/Ports-of-Call4.jpg]
[cschengdu.ca/wp-content/uploads/2014/10/40.jpg]
[cschengdu.ca/index62d4.html]
[cschengdu.ca/wp-content/uploads/2014/10/Photo-01-02.jpg]
[cschengdu.ca/wp-content/uploads/2014/10/Photo-03-06.jpg]
[cschengdu.ca/wp-content/uploads/2014/10/Photo-0708.jpg]
[cschengdu.ca/wp-content/uploads/2014/10/Photo-09-10.jpg]
[cschengdu.ca/indexa226.html]
[cschengdu.ca/wp-content/uploads/2014/10/Photo-11-1.jpg]
[cschengdu.ca/wp-content/uploads/2014/10/Photo-12-13.jpg]
[cschengdu.ca/index38ee.html]
[cschengdu.ca/wp-content/uploads/2014/10/photo-14-15.jpg]
[cschengdu.ca/wp-content/uploads/2014/10/photo-16-17.jpg]
[cschengdu.ca/wp-content/uploads/2014/10/Photo-18.jpg]
[cschengdu.ca/indexc27c.html]
[cschengdu.ca/wp-content/uploads/2014/11/Clara-Jones-2.jpg]
[cschengdu.ca/wp-content/uploads/2014/11/Barbara-Jones-2011.jpg]
[cschengdu.ca/wp-content/uploads/2014/11/1943-Clara-Jones.jpg]
[cschengdu.ca/wp-content/uploads/2014/11/Clara-German-with-friends.jpg]
[cschengdu.ca/wp-content/uploads/2014/11/Clara-in-Japan.jpg]
[cschengdu.ca/wp-content/uploads/2014/11/Wedding.jpg]
[cschengdu.ca/wp-content/uploads/2014/11/WMS-women.jpg]
[cschengdu.ca/wp-content/uploads/2014/11/Gordon-and-staff.jpg]
[cschengdu.ca/wp-content/uploads/2014/11/Family-1917-1927.jpg]
[cschengdu.ca/wp-content/uploads/2014/11/Chungking-and-Canadian-School.jpg]
[cschengdu.ca/wp-content/uploads/2014/11/Agency.jpg]
[cschengdu.ca/wp-content/uploads/2014/11/Bombing.jpg]
[cschengdu.ca/wp-content/uploads/2014/11/Radio.jpg]
[cschengdu.ca/wp-content/uploads/2014/11/A-few-people.jpg]
[cschengdu.ca/wp-content/uploads/2014/11/Clara-and-Gordon.jpg]
[cschengdu.ca/wp-content/uploads/2014/11/House-boats-on-Yangtze.jpg]
[cschengdu.ca/index1a51.html]
[cschengdu.ca/index19a2.html]
[cschengdu.ca/indexe43e.html]
[cschengdu.ca/index25b5.html]
[cschengdu.ca/indexaab0.html]
[cschengdu.ca/index55c3.html]
[cschengdu.ca/index131f.html]
[cschengdu.ca/index8444.html]
[cschengdu.ca/index6e0f.html]
[cschengdu.ca/index3a9a.html]
[cschengdu.ca/indexdef1.html]
[cschengdu.ca/index8ef6.html]
[cschengdu.ca/index88da.html]
[cschengdu.ca/index4bb7.html]
[cschengdu.ca/index59f6.html]
[cschengdu.ca/indexf774.html]
[cschengdu.ca/wp-content/uploads/2015/11/Hart-Family1.jpg]
[cschengdu.ca/wp-content/uploads/2015/11/Hart-in-Fuzhou2.jpg]
[cschengdu.ca/wp-content/uploads/2015/11/The-Stella.jpg]
[cschengdu.ca/wp-content/uploads/2015/11/Nanjing-Hospital1.jpg]
[cschengdu.ca/wp-content/uploads/2015/11/Wuhu-Hospital1.jpg]
[cschengdu.ca/wp-content/uploads/2015/11/CarolineDrEdgertonHart1.jpg]
[cschengdu.ca/wp-content/uploads/2015/11/Chengdu-Street.jpg]
[cschengdu.ca/wp-content/uploads/2015/11/Hart-and-Abbot1.jpg]
[cschengdu.ca/wp-content/uploads/2015/11/Book-pages1.jpg]
[cschengdu.ca/wp-content/uploads/2015/11/Group-Missionaries1.jpg]
[cschengdu.ca/wp-content/uploads/2015/11/Boat-in-Yangtse2.jpg]
[cschengdu.ca/wp-content/uploads/2015/11/Canadian-Methodist-Hospital.jpg]
[cschengdu.ca/wp-content/uploads/2015/11/Press-in-Kiating1.jpg]
[cschengdu.ca/wp-content/uploads/2015/11/Hart-and-his-wife1.jpg]
[cschengdu.ca/wp-content/uploads/2015/11/Hart-College.jpg]
[cschengdu.ca/wp-content/uploads/2015/11/Stan-Crawford.jpg]
[cschengdu.ca/indexc662.html]
[cschengdu.ca/wp-content/uploads/2015/11/Omar-Leslie-Kilborn2.jpg]
[cschengdu.ca/wp-content/uploads/2015/11/Greenbush-Methodist-Church2.jpg]
[cschengdu.ca/wp-content/uploads/2015/11/Medical-College-18891.jpg]
[cschengdu.ca/wp-content/uploads/2015/11/George-and-Omar1.jpg]
[cschengdu.ca/wp-content/uploads/2015/11/first-group1.jpg]
[cschengdu.ca/wp-content/uploads/2015/11/first-chapel-chengdu1.jpg]
[cschengdu.ca/wp-content/uploads/2015/11/Trackers1.jpg]
[cschengdu.ca/wp-content/uploads/2015/11/Retta-Kilborn1.jpg]
[cschengdu.ca/wp-content/uploads/2015/11/Rongxian-Kilborns1.jpg]
[cschengdu.ca/wp-content/uploads/2015/11/Geo-Hartwell-Home-after-Riot.jpg]
[cschengdu.ca/wp-content/uploads/2015/11/First-Hospital-in-Chengdu.jpg]
[cschengdu.ca/index74f2.html]
[cschengdu.ca/wp-content/uploads/2015/11/Ten-Stations1.jpg]
[cschengdu.ca/wp-content/uploads/2015/11/Countryside1.jpg]
[cschengdu.ca/wp-content/uploads/2015/11/the-Standing-Committee-on-Church-Union-in-West-China1.jpg]
[cschengdu.ca/wp-content/uploads/2015/11/Kindergarten-Class.jpg]
[cschengdu.ca/wp-content/uploads/2015/11/Medical-Centre-19201.jpg]
[cschengdu.ca/wp-content/uploads/2015/11/West-China-Mission-Council-19091.jpg]
[cschengdu.ca/wp-content/uploads/2015/11/Writings1.jpg]
[cschengdu.ca/wp-content/uploads/2015/11/Red-Cross1.jpg]
[cschengdu.ca/wp-content/uploads/2015/11/two-hospitals1.jpg]
[cschengdu.ca/wp-content/uploads/2015/11/first-class1.jpg]
[cschengdu.ca/wp-content/uploads/2015/11/our-west-china-mission1.jpg]
[cschengdu.ca/wp-content/uploads/2015/11/Chinese-Lessons1.jpg]
[cschengdu.ca/wp-content/uploads/2015/11/heal-the-sick1.jpg]
[cschengdu.ca/wp-content/uploads/2015/11/Omar-on-the-top-of-the-city-wall1.jpg]
[cschengdu.ca/indexcdea.html]
[cschengdu.ca/wp-content/uploads/2015/11/Omar-family1.jpg]
[cschengdu.ca/index9e2d.html]
[cschengdu.ca/wp-content/uploads/2015/11/Omar-and-Retta1.jpg]
[cschengdu.ca/wp-content/uploads/2015/11/Leslie-Kilborn1.jpg]
[cschengdu.ca/wp-content/uploads/2015/11/Constance-and-Cora1.jpg]
[cschengdu.ca/wp-content/uploads/2015/11/Robert-Kilborn1.jpg]
[cschengdu.ca/wp-content/uploads/2015/11/with-their-teacher1.jpg]
[cschengdu.ca/wp-content/uploads/2015/11/west-china-school-of-medicine1.jpg]
[cschengdu.ca/wp-content/uploads/2015/11/west-china-hospital-now1.jpg]
[cschengdu.ca/wp-content/uploads/2015/11/thank-you1.jpg]
[cschengdu.ca/index3200.html]
[cschengdu.ca/wp-content/uploads/2015/11/xiexie1.jpg]
[cschengdu.ca/index6e40.html]
[cschengdu.ca/index9d20.html]
[cschengdu.ca/index3d46.html]
[cschengdu.ca/indexd481.html]
[cschengdu.ca/wp-content/uploads/2015/11/Stevenson-and-Amelia.jpg]
[cschengdu.ca/wp-content/uploads/2015/11/first-steamer.jpg]
[cschengdu.ca/wp-content/uploads/2015/11/Wedding-announcement1.jpg]
[cschengdu.ca/wp-content/uploads/2015/11/China-map.jpg]
[cschengdu.ca/wp-content/uploads/2015/11/Yangtse-River.jpg]
[cschengdu.ca/wp-content/uploads/2015/11/Chengdu-street-2.jpg]
[cschengdu.ca/wp-content/uploads/2015/11/Sedan-Chair.jpg]
[cschengdu.ca/wp-content/uploads/2015/11/Riot-girls1.jpg]
[cschengdu.ca/wp-content/uploads/2015/11/Stevenson-family1.jpg]
[cschengdu.ca/wp-content/uploads/2015/11/Stevenson-picture1.jpg]
[cschengdu.ca/wp-content/uploads/2015/11/old-amelia2.jpg]
[cschengdu.ca/indexab1e.html]
[cschengdu.ca/wp-admin/images/wordpress-logo7d6b.svg]
[cschengdu.ca/wp-loginfb0a.html]
[cschengdu.ca/index1c49.html]
[cschengdu.ca/wp-includes/js/mediaelement/bigplay.svg]
[cschengdu.ca/index28db.html]
[cschengdu.ca/index7de4.html]
[cschengdu.ca/indexf686.html]
[cschengdu.ca/wp-includes/js/mediaelement/controls.svg]
[cschengdu.ca/indexd820.html]
[cschengdu.ca/indexaf7b.html]
[cschengdu.ca/indexbc9e.html]
[cschengdu.ca/indexd068.html]
[cschengdu.ca/indexd89d.html]
[cschengdu.ca/indexeb88.html]
[cschengdu.ca/wp-content/uploads/2014/10/1906-1908.html]
[cschengdu.ca/indexdede.html]
[cschengdu.ca/index6c69.html]
[cschengdu.ca/index2683.html]
[cschengdu.ca/index6645.html]
[cschengdu.ca/index592f.html]
[cschengdu.ca/index8a7d.html]
[cschengdu.ca/indexfb53.html]
[cschengdu.ca/indexc518.html]
[cschengdu.ca/indexbee9.html]
[cschengdu.ca/indexc2fe.html]
[cschengdu.ca/index5a5d.html]
[cschengdu.ca/index0df9.html]
[cschengdu.ca/index524d.html]
[cschengdu.ca/index4081.html]
[cschengdu.ca/indexbaff.html]
[cschengdu.ca/indexc135.html]
[cschengdu.ca/indexc524.html]
[cschengdu.ca/index7dad.html]
[cschengdu.ca/index1dbd.html]
[cschengdu.ca/indexcbf7.html]
[cschengdu.ca/indexdc17.html]
[cschengdu.ca/index6239.html]
[cschengdu.ca/indexea0f.html]
[cschengdu.ca/wp-admin/&reauth=1.html]
